{
  "avatar_url": "https://media.discordapp.net/attachments/748647123209420890/806839407129919498/a74c36296a34bf07.png?width=600&height=480",
  "content": "",
  "embeds": [
    {
      "title": "**Сброс всех игровых ролей!**",
      "color": 16770559,
      "description": "Нажав на эмодзи :x:, вы уберете у себя все **(!)** игровые роли и подписки!\n```diff\nЕсли вам нужна какая-то игровая роль, то ее придется заново брать, так как уберутся все роли подписок и игр!```",
      "timestamp": "",
      "author": {},
      "image": {},
      "thumbnail": {},
      "footer": {},
      "fields": []
    }
  ]
}