{
      "username": "PinkSquad",
  "avatar_url": "https://cdn.discordapp.com/attachments/748276700143681687/786675271964164186/a74c36296a34bf07.png",
  "content": "",
  "embeds": [
    {
      "color": 99540,
      "author": {},
      "image": {
        "url": "https://media.discordapp.net/attachments/748276700143681687/790252522152394822/download_10.gif"
      },
      "thumbnail": {},
      "footer": {},
      "fields": []
    },
    {
      "title": "<a:flameskyblue:756874504344567860> Солнце, у нас есть специальные каналы, которые помогут тебе влиться в жизнь сервера ещё больше!",
      "color": 99541,
      "description": "<a:kawaiiBowBlue:751978572339740774> И для этого у нас есть **роли-подписки!** <a:kawaiiBowBlue:751978572339740774>\n:scroll: - *Подписывает Вас на новостной канал*\n<#741764049494212629>\n:balloon: - *Подписывает Вас на канал для ивентов*\n<#747839368269398186>\n:art: - *Подписывает Вас на канал для творчества*\n<#744318102564765737>\n:shinto_shrine: - *Подписывает Вас на аниме новости*\n<#798964479789629471>\n```bash\n\"Если вы хотите получать уведомления из этих каналов, то просто нажмите на соответствующую реакцию!\"```",
      "author": {},
      "image": {
        "url": "https://images-ext-1.discordapp.net/external/wue6Aqtm842r4vdExzAbGJh_MaGk5tK7lFuqZ7mD_go/https/images-ext-1.discordapp.net/external/8XxpCyxeUPOdgCOIZuWlYzsdA-c8ki1SszLiO6n8nLE/https/images-ext-2.discordapp.net/external/7DeytwE35SQOKeusufHE0PbIXl9HPVthwv2mNiqPIug/https/cdn.probot.io/3MPjP6UgPz.gif"
      },
      "thumbnail": {
        "url": "https://media.discordapp.net/attachments/748276700143681687/790267574004875294/VhdL.gif"
      },
      "footer": {},
      "fields": []
    }
  ]
}
