{
  "content": "",
  "embeds": [
    {
      "color": 16743068,
      "description": "⊹ ︵︵   ・─・  ₊ ๑ ˎˊ˗\n✦┊✧꒰ **Как создать клан **꒱✦┊✧ \n◦・ ︶︶︶︶︶︶︶︶︶꒷꒦‧₊\n\n・୨・┈┈┈┈・୨ <:o_:855521951133204500> ୧・┈┈┈┈・୧・\n```diff\n- Для создания клана Вам необходима роль Магистр.\n- После получения Магистра Вам нужно отправить Даймё:```\nᅠᅠ・・・・・・・・・・・・\n <:l_:855521951137005598> ︰Название клана;\n <:l_:855521951137005598> ︰префикс клана, который должен состоять из трёх букв;\n <:l_:855521951137005598> ︰смайлик Вашего клана/семьи;\n <:l_:855521951137005598> ︰хэш цвета для клановой роли;\nᅠᅠ・・・・・・・・・・・・\n```diff\n- Даймё создадут Вам клан и передадут права владения на него. После чего Вы сможете его кастомизировать под себя.```\n・୨・┈┈┈┈・୨ <:o_:855521951133204500> ୧・┈┈┈┈・୧・",
      "author": {},
      "image": {
        "url": "https://images-ext-1.discordapp.net/external/8XxpCyxeUPOdgCOIZuWlYzsdA-c8ki1SszLiO6n8nLE/https/images-ext-2.discordapp.net/external/7DeytwE35SQOKeusufHE0PbIXl9HPVthwv2mNiqPIug/https/cdn.probot.io/3MPjP6UgPz.gif"
      },
      "thumbnail": {},
      "footer": {},
      "fields": []
    },
    {
      "color": 16747432,
      "description": "<a:some_Sakura:786995396827545610> ✧ **Команды для кастомизации** ✧ <a:some_Sakura:786995396827545610>\n\n・୨・┈┈┈┈・୨ <:o_:855521951133204500> ୧・┈┈┈┈・୧・\n```diff\n- Если название Вашего клана состоит из двух или более слов, то его нужно писать [в квадратных скобках].\n- Как его улучшить:```\nᅠᅠ・・・・・・・・・・・・\n <:l_:855521951137005598>︰**k?edit-guild name** - Поменять название клана.\n <:l_:855521951137005598>︰**k?edit-guild description** - Добавить описание клана.\n <:l_:855521951137005598>︰**k?edit-guild avatar** - Добавить аватарку клана.\n <:l_:855521951137005598>︰**k?edit-guild private** - Сделать клан закрытым.\n <:l_:855521951137005598>︰**k?edit-guild limit** - Поставить лимит участников в клане.\n <:l_:855521951137005598>︰**k?edit-guild role** - Поставить роль клана.\n <:l_:855521951137005598>︰**k?edit-guild helper** - Назначить замглавы клана.\n <:l_:855521951137005598>︰**k?edit-guild leader** - Передать главу другому человеку.\nᅠᅠ・・・・・・・・・・・・\n```diff\n- Помощник не имеет право редактировать гильдию, но он может использовать команды для  управления участниками клана```\n・୨・┈┈┈┈・୨ <:o_:855521951133204500> ୧・┈┈┈┈・୧・",
      "author": {},
      "image": {
        "url": "https://images-ext-1.discordapp.net/external/8XxpCyxeUPOdgCOIZuWlYzsdA-c8ki1SszLiO6n8nLE/https/images-ext-2.discordapp.net/external/7DeytwE35SQOKeusufHE0PbIXl9HPVthwv2mNiqPIug/https/cdn.probot.io/3MPjP6UgPz.gif"
      },
      "thumbnail": {},
      "footer": {},
      "fields": []
    },
    {
      "color": 16751541,
      "description": "<a:some_Sakura:786995396827545610> ✧ **Команды для управления участниками клана** ✧ <a:some_Sakura:786995396827545610>\n\nᅠᅠ・・・・・・・・・・・・\n <:l_:855521951137005598> ︰**k?requests** - Посмотреть список запросов.\n <:l_:855521951137005598> ︰**k?accept** - Принять запрос.\n <:l_:855521951137005598> ︰**k?decline** - Отклонить запрос.\n <:l_:855521951137005598> ︰**k?kick** - Исключить участника.\n <:l_:855521951137005598> ︰**k?leave (название клана)** - Выйти из клана.\nᅠᅠ・・・・・・・・・・・・",
      "author": {},
      "image": {
        "url": "https://images-ext-1.discordapp.net/external/8XxpCyxeUPOdgCOIZuWlYzsdA-c8ki1SszLiO6n8nLE/https/images-ext-2.discordapp.net/external/7DeytwE35SQOKeusufHE0PbIXl9HPVthwv2mNiqPIug/https/cdn.probot.io/3MPjP6UgPz.gif"
      },
      "thumbnail": {},
      "footer": {},
      "fields": []
    },
    {
      "color": 16755905,
      "description": "<a:some_Sakura:786995396827545610> ✧ **Клановая война** ✧ <a:some_Sakura:786995396827545610>\nКланы соревнуются в накоплении очков по 4-м разным шкалам.\nᅠᅠ・・・・・・・・・・・・\n<:l_:855521951137005598> ︰**Опыт за сообщения в чате** - Начисляется раз в 30 секунд.\n<:l_:855521951137005598> ︰**Репутация** - Очки, начисляемые клану вручную.\n<:l_:855521951137005598> ︰**Рейтинг** - Усреднение опыта и репутации.\n<:l_:855521951137005598> ︰**Упоминания** - Очки, начисляемые при упоминании.\nᅠᅠ・・・・・・・・・・・・\n<:l_:855521951137005598> ︰**k?top** - Посмотреть топ кланов.\n<:l_:855521951137005598> ︰**k?top roles @Роль** - Посмотреть топ кланов по роли.\nᅠᅠ・・・・・・・・・・・・",
      "author": {},
      "image": {
        "url": "https://images-ext-1.discordapp.net/external/8XxpCyxeUPOdgCOIZuWlYzsdA-c8ki1SszLiO6n8nLE/https/images-ext-2.discordapp.net/external/7DeytwE35SQOKeusufHE0PbIXl9HPVthwv2mNiqPIug/https/cdn.probot.io/3MPjP6UgPz.gif"
      },
      "thumbnail": {},
      "footer": {},
      "fields": []
    }
  ],
  "components": []
}
