{
  "username": "",
  "avatar_url": "",
  "content": "",
  "embeds": [
    {
      "title": "Работа с нашими шаблонами эмбедов:",
      "color": 9961666,
      "description": "Webhook URL - сюда вы оставляете ссылку для отправления поста в определенный канал. Ссылки эти будут прикреплены ниже.\nAvatar URL - ссылка на картинку. Эта картинка станет аватаркой бота. Картинка так же будет ниже.\nСправа вы будете наблюдать за тем, как примерно будет выглядеть пост.\n",
      "timestamp": "",
      "author": {},
      "image": {
        "url": "https://cdn.discordapp.com/attachments/800986976093863937/800989697723727922/unknown.png"
      },
      "thumbnail": {},
      "footer": {},
      "fields": []
    },
    {
      "color": 9961911,
      "description": "Вот собствено начало самого эмбеда. Нас волнует поле \"Title\" Вместо того названия, которое стоит сейчас - Вы ставите название аниме, по которому делаете обзор. Пробелами до и после названия можно выполнить выравнивание. \nТак же нас интересует поле справа \"JSON Code\". Там хранится наш эмбед в виде кода на JavaScript. Все шаблоны эмбедов как раз и буду скинуты для этого поля. Берете нужный файл ниже, копируете оттуда текст и вставляете вместо того, что у вас в JSON Code.\n",
      "timestamp": "",
      "author": {},
      "image": {
        "url": "https://cdn.discordapp.com/attachments/800986976093863937/800990454355066900/unknown.png"
      },
      "thumbnail": {},
      "footer": {},
      "fields": []
    },
    {
      "color": 9699762,
      "description": "**Color** - изменение цвета полоски слева\n**Image URL** - Картинка снизу текста\n**Thumbnail URL** - Картинка справа от текста\n**Footer Text** - Надпись мелким шрифтом в самом низу поста\nПо умолчанию эти поля будут заполнены(Кроме Thumbnail URL, т.к. мы им не пользуемся), но для общего развития расписал для чего они.\n",
      "timestamp": "",
      "author": {},
      "image": {
        "url": "https://cdn.discordapp.com/attachments/800986976093863937/800993084988063794/unknown.png"
      },
      "thumbnail": {},
      "footer": {},
      "fields": []
    },
    {
      "title": "Основная часть нашего поста.",
      "color": 9964746,
      "description": "Поля : \"Выпуск\", \"Жанр\" и \"Описание\" в них **ничего** делать вам не нужно будет\nВместо ** \"03.04.2010-26.06.2010\" ** - пишете **дату выпуска того тайтла, по которому делаете обзор.** Если в аниме несколько сезонов, то **первая дата** - выход первой серии первого сезона, вторая дата - выход последней серии последнего сезона.\nВместо \"Драма, романтика\" - пишете **ключевые** жанры тайтла. Но есть маленькое ограничение из-за формата поста. Вместится только 2 жанра, так что тут нужно будет вам выбрать: какие жанры поставить.\nНу и \"Описание\". Ниже него вы вставляете описание тайтла, здесь есть 2 варианта: Либо вы пишите его сами(Но нужно будет его делать в общих тонах, что бы это не выглядело как рецензия), либо берете с какого-либо сайта. Я рекомендую https://yummyanime.club/, т.к. там краткие и хорошие описания.",
      "timestamp": "",
      "author": {},
      "image": {
        "url": "https://cdn.discordapp.com/attachments/800986976093863937/800994269300129842/unknown.png"
      },
      "thumbnail": {},
      "footer": {},
      "fields": []
    },
    {
      "color": 11010262,
      "description": "И последнее, что нас тут интересует. В квадратных скобках пишете \"Название аниме, 1 серия\", в круглых оставляете ссылку на эту первую серию",
      "timestamp": "",
      "url": "",
      "author": {},
      "image": {
        "url": "https://cdn.discordapp.com/attachments/800986976093863937/800994550662561802/unknown.png"
      },
      "thumbnail": {},
      "footer": {},
      "fields": []
    },
    {
      "color": 11993307,
      "description": "Все форматирование этих полей происходит только за счет изменения заглавных полей Филда(Field) по средству добавления/удаления пробелов до и после слов. Форматирование поля в 4 Филде происходит за счет добавления пустого символа.\nПри составлении поста, вы можете отправлять его в канал <#799768472816713758>, что бы посмотреть как он будет выглядеть. Единственный нюанс в том, что мы подгоняем пост под то, как он будет выглядеть на ПК, если у вас его нет, то обратитесь к своим коллегам, что бы они помогли вам подогнать все поля.\nВсе вопросы по работе с эмбедами можете задавать в канал <#800986976093863937> или в ЛС мне (<@!159297227959959554>) или <@!693119417512362095>\n\n",
      "timestamp": "",
      "author": {},
      "image": {},
      "thumbnail": {},
      "footer": {},
      "fields": []
    },
    {
      "title": "**Вебухки**",
      "color": 13371354,
      "description": "https://discord.com/api/webhooks/798964533876097085/VIG-wztij47tUUQVkvDW4rSJwHo58Dxor30vSl9cswv0AwLfaE0NMd7Fn8z-2l3ecISW - <#798964479789629471>\nhttps://discord.com/api/webhooks/799768615603011645/7wEJGGNSFy2sPziv9A5juL1QQQNe0_4pnv0p5UWk-pJtQSYiTgBl4_p-yjFKPeUCWXOc - <#799768472816713758>\n―――――――――――――――――――――――――――――――――\nАватарка бота. (Открываете картинку, \"Открыть оригинал\", копируете ссылку и вставляете в нужно поле)",
      "timestamp": "",
      "author": {},
      "image": {
        "url": "https://cdn.discordapp.com/attachments/800986976093863937/800997956345659392/749675153457414265.png"
      },
      "thumbnail": {},
      "footer": {},
      "fields": []
    },
    {
      "title": "**Пример тэга**",
      "color": 14551021,
      "description": "Кого/Что хотите отметить и как это должно выглядеть :               \nUser :                                                    <@USER_ID>             \nUser (Nickname) :                                 <@!USER_ID>             \nChannel :                                               <#CHANNEL_ID>       \nRole :                                                     <@&ROLE_ID>           ",
      "timestamp": "",
      "author": {},
      "image": {},
      "thumbnail": {},
      "footer": {},
      "fields": []
    },
    {
      "title": "**Расписание постов, сайты с аниме новостями и где мы делаем эмбеды**",
      "color": 15728872,
      "description": "**Расписание постов**\n**Понедельник** - *Обзор от Нас/Совета/Модерации/Администрации*\n**Вторник** - *Свободный день*\n**Среда** - *Обзор Аниме*\n**Четверг** - *Свободный день*\n**Пятница** - *Интересные новости(От 1 до 3 постов за день)*\n**Суббота, Вс** - *Свободный день*\n15 числа в Феврале, Мае, Августе, Ноябре начинается сбор информации для анонса по сезону.\n**Сайты с аниме новостями:**\nhttps://kg-portal.ru/news/anime/\nhttps://www.animag.ru/news\nhttps://www.wakanim.tv/ru/v2/news\nhttps://shazoo.ru/tags/590/anime\nhttps://dtf.ru/anime\n**Где мы делаем эмбеды:**\nhttps://discord.club/",
      "timestamp": "",
      "author": {},
      "image": {},
      "thumbnail": {},
      "footer": {},
      "fields": []
    }
  ]
}
